<svg version="1.1" id="Capa_1" xmlns="http://www.w3.org/2000/svg" xmlns:xlink="http://www.w3.org/1999/xlink" x="0px" y="0px"
	 width="106.1px" height="106.1px" viewBox="0 0 106.1 106.1" style="enable-background:new 0 0 106.1 106.1;" xml:space="preserve"
	>
	<path d="M90.5,15.5c-20.7-20.7-54.3-20.7-75,0c-20.7,20.7-20.7,54.3,0,75c20.7,20.7,54.3,20.7,75,0
		C111.2,69.9,111.2,36.2,90.5,15.5z M84.8,84.8c-17.5,17.5-46,17.5-63.5,0c-17.5-17.5-17.5-46,0-63.5c17.5-17.5,46-17.5,63.5,0
		C102.3,38.8,102.3,67.3,84.8,84.8z M28.2,39.4c0-4.9,4-8.9,8.9-8.9c4.9,0,8.9,4,8.9,8.9c0,4.9-4,8.9-8.9,8.9
		C32.2,48.3,28.2,44.3,28.2,39.4z M58.7,39.4c0-4.9,4-8.9,8.9-8.9c4.9,0,8.9,4,8.9,8.9c0,4.9-4,8.9-8.9,8.9S58.7,44.3,58.7,39.4z
		 M78.9,63.7c-4.4,10.2-14.8,16.8-26.3,16.8c-11.8,0-22.2-6.6-26.5-16.9c-0.7-1.8,0.1-3.8,1.9-4.5c0.4-0.2,0.9-0.3,1.3-0.3
		c1.4,0,2.6,0.8,3.2,2.1c3.2,7.7,11.1,12.6,20.1,12.6c8.8,0,16.7-5,20-12.6c0.8-1.7,2.8-2.6,4.5-1.8C78.8,59.9,79.6,62,78.9,63.7z"
		/>
</svg>
